\relax 
\providecommand\hyper@newdestlabel[2]{}
\providecommand\HyperFirstAtBeginDocument{\AtBeginDocument}
\HyperFirstAtBeginDocument{\ifx\hyper@anchor\@undefined
\global\let\oldcontentsline\contentsline
\gdef\contentsline#1#2#3#4{\oldcontentsline{#1}{#2}{#3}}
\global\let\oldnewlabel\newlabel
\gdef\newlabel#1#2{\newlabelxx{#1}#2}
\gdef\newlabelxx#1#2#3#4#5#6{\oldnewlabel{#1}{{#2}{#3}}}
\AtEndDocument{\ifx\hyper@anchor\@undefined
\let\contentsline\oldcontentsline
\let\newlabel\oldnewlabel
\fi}
\fi}
\global\let\hyper@last\relax 
\gdef\HyperFirstAtBeginDocument#1{#1}
\providecommand\HyField@AuxAddToFields[1]{}
\providecommand\HyField@AuxAddToCoFields[2]{}
\babel@aux{italian}{}
\babel@aux{italian}{}
\@writefile{toc}{\contentsline {chapter}{Introduzione}{5}{chapter*.2}}
\@writefile{toc}{\contentsline {chapter}{\numberline {1}Tecniche algoritmiche per il riconoscimento di immagini}{9}{chapter.1}}
\@writefile{lof}{\addvspace {10\p@ }}
\@writefile{lot}{\addvspace {10\p@ }}
\@writefile{toc}{\contentsline {section}{\numberline {1.1}Da RGB a Grayscale}{10}{section.1.1}}
\@writefile{toc}{\contentsline {subsection}{\numberline {1.1.1}Formato RGB}{10}{subsection.1.1.1}}
\@writefile{toc}{\contentsline {subsection}{\numberline {1.1.2}Formato Grayscale}{10}{subsection.1.1.2}}
\@writefile{toc}{\contentsline {subsection}{\numberline {1.1.3}Conversione da RGB a Grayscale}{11}{subsection.1.1.3}}
\@writefile{loa}{\contentsline {algorithm}{\numberline {1}{\ignorespaces Convert from RGB to Grayscale\relax }}{11}{algorithm.1}}
\@writefile{lof}{\contentsline {figure}{\numberline {1.1}{\ignorespaces \relax \fontsize  {10.95}{13.6}\selectfont  \abovedisplayskip 11\p@ plus3\p@ minus6\p@ \abovedisplayshortskip \z@ plus3\p@ \belowdisplayshortskip 6.5\p@ plus3.5\p@ minus3\p@ \def \leftmargin \leftmargini \parsep 5\p@ plus2.5\p@ minus\p@ \topsep 10\p@ plus4\p@ minus6\p@ \itemsep 5\p@ plus2.5\p@ minus\p@ {\leftmargin \leftmargini \topsep 9\p@ plus3\p@ minus5\p@ \parsep 4.5\p@ plus2\p@ minus\p@ \itemsep \parsep }\belowdisplayskip \abovedisplayskip {Applicazione dell'algoritmo \textsc  {Convert} all'immagine (a).}\relax }}{12}{figure.caption.3}}
\@writefile{toc}{\contentsline {section}{\numberline {1.2}Binarizzazione}{12}{section.1.2}}
\@writefile{loa}{\contentsline {algorithm}{\numberline {2}{\ignorespaces Binarization of an image\relax }}{13}{algorithm.2}}
\@writefile{toc}{\contentsline {subsection}{\numberline {1.2.1}Istogramma}{13}{subsection.1.2.1}}
\@writefile{lof}{\contentsline {figure}{\numberline {1.2}{\ignorespaces \relax \fontsize  {10.95}{13.6}\selectfont  \abovedisplayskip 11\p@ plus3\p@ minus6\p@ \abovedisplayshortskip \z@ plus3\p@ \belowdisplayshortskip 6.5\p@ plus3.5\p@ minus3\p@ \def \leftmargin \leftmargini \parsep 5\p@ plus2.5\p@ minus\p@ \topsep 10\p@ plus4\p@ minus6\p@ \itemsep 5\p@ plus2.5\p@ minus\p@ {\leftmargin \leftmargini \topsep 9\p@ plus3\p@ minus5\p@ \parsep 4.5\p@ plus2\p@ minus\p@ \itemsep \parsep }\belowdisplayskip \abovedisplayskip {L'immagine (b) rappresentea l'istogramma dell'immagine (a).}\relax }}{14}{figure.caption.4}}
\@writefile{lof}{\contentsline {figure}{\numberline {1.3}{\ignorespaces \relax \fontsize  {10.95}{13.6}\selectfont  \abovedisplayskip 11\p@ plus3\p@ minus6\p@ \abovedisplayshortskip \z@ plus3\p@ \belowdisplayshortskip 6.5\p@ plus3.5\p@ minus3\p@ \def \leftmargin \leftmargini \parsep 5\p@ plus2.5\p@ minus\p@ \topsep 10\p@ plus4\p@ minus6\p@ \itemsep 5\p@ plus2.5\p@ minus\p@ {\leftmargin \leftmargini \topsep 9\p@ plus3\p@ minus5\p@ \parsep 4.5\p@ plus2\p@ minus\p@ \itemsep \parsep }\belowdisplayskip \abovedisplayskip {Istogramma dell'immagine (a) in Figura 2.2 a cui \IeC {\`e} stato applicato la radice quadrata e l'operazione di smooth.}\relax }}{15}{figure.caption.5}}
\@writefile{lof}{\contentsline {figure}{\numberline {1.4}{\ignorespaces \relax \fontsize  {10.95}{13.6}\selectfont  \abovedisplayskip 11\p@ plus3\p@ minus6\p@ \abovedisplayshortskip \z@ plus3\p@ \belowdisplayshortskip 6.5\p@ plus3.5\p@ minus3\p@ \def \leftmargin \leftmargini \parsep 5\p@ plus2.5\p@ minus\p@ \topsep 10\p@ plus4\p@ minus6\p@ \itemsep 5\p@ plus2.5\p@ minus\p@ {\leftmargin \leftmargini \topsep 9\p@ plus3\p@ minus5\p@ \parsep 4.5\p@ plus2\p@ minus\p@ \itemsep \parsep }\belowdisplayskip \abovedisplayskip {Risultato dell'algoritmo di binarizzazione applicato all'immagine (a) in Figura 2.2 con la soglia ricavata dall'istogramma in Figura 2.3.}\relax }}{15}{figure.caption.6}}
\@writefile{lof}{\contentsline {figure}{\numberline {1.5}{\ignorespaces \relax \fontsize  {10.95}{13.6}\selectfont  \abovedisplayskip 11\p@ plus3\p@ minus6\p@ \abovedisplayshortskip \z@ plus3\p@ \belowdisplayshortskip 6.5\p@ plus3.5\p@ minus3\p@ \def \leftmargin \leftmargini \parsep 5\p@ plus2.5\p@ minus\p@ \topsep 10\p@ plus4\p@ minus6\p@ \itemsep 5\p@ plus2.5\p@ minus\p@ {\leftmargin \leftmargini \topsep 9\p@ plus3\p@ minus5\p@ \parsep 4.5\p@ plus2\p@ minus\p@ \itemsep \parsep }\belowdisplayskip \abovedisplayskip {Risultato dell'algoritmo applicato ad un'immagine contenente una brusca variazione di luminosit\IeC {\`a}.}\relax }}{16}{figure.caption.7}}
\@writefile{lof}{\contentsline {figure}{\numberline {1.6}{\ignorespaces \relax \fontsize  {10.95}{13.6}\selectfont  \abovedisplayskip 11\p@ plus3\p@ minus6\p@ \abovedisplayshortskip \z@ plus3\p@ \belowdisplayshortskip 6.5\p@ plus3.5\p@ minus3\p@ \def \leftmargin \leftmargini \parsep 5\p@ plus2.5\p@ minus\p@ \topsep 10\p@ plus4\p@ minus6\p@ \itemsep 5\p@ plus2.5\p@ minus\p@ {\leftmargin \leftmargini \topsep 9\p@ plus3\p@ minus5\p@ \parsep 4.5\p@ plus2\p@ minus\p@ \itemsep \parsep }\belowdisplayskip \abovedisplayskip {Risultato dell'algoritmo applicato ad un'immagine contenete una elevata luminosit\IeC {\`a}.}\relax }}{17}{figure.caption.8}}
\@writefile{toc}{\contentsline {section}{\numberline {1.3}Canny Edge Detection}{17}{section.1.3}}
\@writefile{toc}{\contentsline {subsection}{\numberline {1.3.1}Smoothing Gaussiano}{18}{subsection.1.3.1}}
\@writefile{lof}{\contentsline {figure}{\numberline {1.7}{\ignorespaces \relax \fontsize  {10.95}{13.6}\selectfont  \abovedisplayskip 11\p@ plus3\p@ minus6\p@ \abovedisplayshortskip \z@ plus3\p@ \belowdisplayshortskip 6.5\p@ plus3.5\p@ minus3\p@ \def \leftmargin \leftmargini \parsep 5\p@ plus2.5\p@ minus\p@ \topsep 10\p@ plus4\p@ minus6\p@ \itemsep 5\p@ plus2.5\p@ minus\p@ {\leftmargin \leftmargini \topsep 9\p@ plus3\p@ minus5\p@ \parsep 4.5\p@ plus2\p@ minus\p@ \itemsep \parsep }\belowdisplayskip \abovedisplayskip {Risultato dell'operazione di smoothing Gaussiano applicato all'immagine (b) in Figura 2.1. Da notare la leggera sfocatura.}\relax }}{19}{figure.caption.9}}
\@writefile{toc}{\contentsline {subsection}{\numberline {1.3.2}Calcolo del gradiente}{19}{subsection.1.3.2}}
\@writefile{lof}{\contentsline {figure}{\numberline {1.8}{\ignorespaces \relax \fontsize  {10.95}{13.6}\selectfont  \abovedisplayskip 11\p@ plus3\p@ minus6\p@ \abovedisplayshortskip \z@ plus3\p@ \belowdisplayshortskip 6.5\p@ plus3.5\p@ minus3\p@ \def \leftmargin \leftmargini \parsep 5\p@ plus2.5\p@ minus\p@ \topsep 10\p@ plus4\p@ minus6\p@ \itemsep 5\p@ plus2.5\p@ minus\p@ {\leftmargin \leftmargini \topsep 9\p@ plus3\p@ minus5\p@ \parsep 4.5\p@ plus2\p@ minus\p@ \itemsep \parsep }\belowdisplayskip \abovedisplayskip {Modulo del gradiente calcolato utilizzando gli operatori di Sobel applicato all'immagine in Figura 2.7.}\relax }}{20}{figure.caption.10}}
\@writefile{toc}{\contentsline {subsection}{\numberline {1.3.3}Soppressione dei non-massimi in direzione\\ ortogonale all\IeC {\textquoteright }edge}{20}{subsection.1.3.3}}
\@writefile{lof}{\contentsline {figure}{\numberline {1.9}{\ignorespaces \relax \fontsize  {10.95}{13.6}\selectfont  \abovedisplayskip 11\p@ plus3\p@ minus6\p@ \abovedisplayshortskip \z@ plus3\p@ \belowdisplayshortskip 6.5\p@ plus3.5\p@ minus3\p@ \def \leftmargin \leftmargini \parsep 5\p@ plus2.5\p@ minus\p@ \topsep 10\p@ plus4\p@ minus6\p@ \itemsep 5\p@ plus2.5\p@ minus\p@ {\leftmargin \leftmargini \topsep 9\p@ plus3\p@ minus5\p@ \parsep 4.5\p@ plus2\p@ minus\p@ \itemsep \parsep }\belowdisplayskip \abovedisplayskip {Interpolazione nel caso l\IeC {\textquoteright }orientazione del gradiente appartenga al primo ottante.}\relax }}{21}{figure.caption.11}}
\@writefile{lof}{\contentsline {figure}{\numberline {1.10}{\ignorespaces \relax \fontsize  {10.95}{13.6}\selectfont  \abovedisplayskip 11\p@ plus3\p@ minus6\p@ \abovedisplayshortskip \z@ plus3\p@ \belowdisplayshortskip 6.5\p@ plus3.5\p@ minus3\p@ \def \leftmargin \leftmargini \parsep 5\p@ plus2.5\p@ minus\p@ \topsep 10\p@ plus4\p@ minus6\p@ \itemsep 5\p@ plus2.5\p@ minus\p@ {\leftmargin \leftmargini \topsep 9\p@ plus3\p@ minus5\p@ \parsep 4.5\p@ plus2\p@ minus\p@ \itemsep \parsep }\belowdisplayskip \abovedisplayskip {Risultato della soppressione dei non-massimi in direzione ortogonale all\IeC {\textquoteright }edge.}\relax }}{22}{figure.caption.12}}
\@writefile{toc}{\contentsline {subsection}{\numberline {1.3.4}Selezione degli edge significativi mediante\\ isteresi}{22}{subsection.1.3.4}}
\@writefile{lof}{\contentsline {figure}{\numberline {1.11}{\ignorespaces \relax \fontsize  {10.95}{13.6}\selectfont  \abovedisplayskip 11\p@ plus3\p@ minus6\p@ \abovedisplayshortskip \z@ plus3\p@ \belowdisplayshortskip 6.5\p@ plus3.5\p@ minus3\p@ \def \leftmargin \leftmargini \parsep 5\p@ plus2.5\p@ minus\p@ \topsep 10\p@ plus4\p@ minus6\p@ \itemsep 5\p@ plus2.5\p@ minus\p@ {\leftmargin \leftmargini \topsep 9\p@ plus3\p@ minus5\p@ \parsep 4.5\p@ plus2\p@ minus\p@ \itemsep \parsep }\belowdisplayskip \abovedisplayskip {Risultato finale dell'algoritmo selezionando gli edge significativi mediante isteresi.}\relax }}{23}{figure.caption.13}}
\@writefile{lol}{\contentsline {lstlisting}{\numberline {1.1}Algoritmo Canny Edge Detection utilizzando la libreria GPUImage2 con linguaggio di programmazione Swift 3.}{24}{lstlisting.1.1}}
\@writefile{toc}{\contentsline {section}{\numberline {1.4}Segmentazione intera operazione\\matematica}{25}{section.1.4}}
\@writefile{toc}{\contentsline {subsection}{\numberline {1.4.1}Segmentazione orizzontale}{26}{subsection.1.4.1}}
\@writefile{lof}{\contentsline {figure}{\numberline {1.12}{\ignorespaces \relax \fontsize  {10.95}{13.6}\selectfont  \abovedisplayskip 11\p@ plus3\p@ minus6\p@ \abovedisplayshortskip \z@ plus3\p@ \belowdisplayshortskip 6.5\p@ plus3.5\p@ minus3\p@ \def \leftmargin \leftmargini \parsep 5\p@ plus2.5\p@ minus\p@ \topsep 10\p@ plus4\p@ minus6\p@ \itemsep 5\p@ plus2.5\p@ minus\p@ {\leftmargin \leftmargini \topsep 9\p@ plus3\p@ minus5\p@ \parsep 4.5\p@ plus2\p@ minus\p@ \itemsep \parsep }\belowdisplayskip \abovedisplayskip {Risultato dell'algoritmo di segmentazione orizzontale.}\relax }}{26}{figure.caption.14}}
\@writefile{toc}{\contentsline {subsection}{\numberline {1.4.2}Segmentazione verticale}{30}{subsection.1.4.2}}
\@writefile{lof}{\contentsline {figure}{\numberline {1.13}{\ignorespaces \relax \fontsize  {10.95}{13.6}\selectfont  \abovedisplayskip 11\p@ plus3\p@ minus6\p@ \abovedisplayshortskip \z@ plus3\p@ \belowdisplayshortskip 6.5\p@ plus3.5\p@ minus3\p@ \def \leftmargin \leftmargini \parsep 5\p@ plus2.5\p@ minus\p@ \topsep 10\p@ plus4\p@ minus6\p@ \itemsep 5\p@ plus2.5\p@ minus\p@ {\leftmargin \leftmargini \topsep 9\p@ plus3\p@ minus5\p@ \parsep 4.5\p@ plus2\p@ minus\p@ \itemsep \parsep }\belowdisplayskip \abovedisplayskip {Risultato dell'algoritmo di segmentazione verticale.}\relax }}{30}{figure.caption.15}}
\@writefile{toc}{\contentsline {section}{\numberline {1.5}Mathpix}{31}{section.1.5}}
\@writefile{lol}{\contentsline {lstlisting}{\numberline {1.2}Utilizzo dell'API $recognize$ di Mathpix per il riconoscimento di caratteri e simboli presenti nell'immagine $croppedImage$ passatagli in input.}{31}{lstlisting.1.2}}
\@writefile{lof}{\contentsline {figure}{\numberline {1.14}{\ignorespaces \relax \fontsize  {10.95}{13.6}\selectfont  \abovedisplayskip 11\p@ plus3\p@ minus6\p@ \abovedisplayshortskip \z@ plus3\p@ \belowdisplayshortskip 6.5\p@ plus3.5\p@ minus3\p@ \def \leftmargin \leftmargini \parsep 5\p@ plus2.5\p@ minus\p@ \topsep 10\p@ plus4\p@ minus6\p@ \itemsep 5\p@ plus2.5\p@ minus\p@ {\leftmargin \leftmargini \topsep 9\p@ plus3\p@ minus5\p@ \parsep 4.5\p@ plus2\p@ minus\p@ \itemsep \parsep }\belowdisplayskip \abovedisplayskip {Risultato finale dell'algoritmo.}\relax }}{34}{figure.caption.16}}
\@writefile{toc}{\contentsline {chapter}{\numberline {2}Realt\IeC {\`a} aumentata}{35}{chapter.2}}
\@writefile{lof}{\addvspace {10\p@ }}
\@writefile{lot}{\addvspace {10\p@ }}
\@writefile{toc}{\contentsline {section}{\numberline {2.1}Definizione}{35}{section.2.1}}
\@writefile{toc}{\contentsline {section}{\numberline {2.2}Problema delle soglie fisse}{35}{section.2.2}}
\@writefile{lof}{\contentsline {figure}{\numberline {2.1}{\ignorespaces \relax \fontsize  {10.95}{13.6}\selectfont  \abovedisplayskip 11\p@ plus3\p@ minus6\p@ \abovedisplayshortskip \z@ plus3\p@ \belowdisplayshortskip 6.5\p@ plus3.5\p@ minus3\p@ \def \leftmargin \leftmargini \parsep 5\p@ plus2.5\p@ minus\p@ \topsep 10\p@ plus4\p@ minus6\p@ \itemsep 5\p@ plus2.5\p@ minus\p@ {\leftmargin \leftmargini \topsep 9\p@ plus3\p@ minus5\p@ \parsep 4.5\p@ plus2\p@ minus\p@ \itemsep \parsep }\belowdisplayskip \abovedisplayskip {Risultato dell'algoritmo se si scatta la foto senza rispettare il vincolo imposto dalle soglie.}\relax }}{36}{figure.caption.17}}
\@writefile{toc}{\contentsline {section}{\numberline {2.3}Rilevamento superficie orizzontale}{36}{section.2.3}}
\@writefile{lol}{\contentsline {lstlisting}{\numberline {2.1}Configurazione per il rilevamento di superfici orizzontali nel mondo reale.}{37}{lstlisting.2.1}}
\@writefile{lol}{\contentsline {lstlisting}{\numberline {2.2}Configurazione per il rilevamento di superfici orizzontali e verticali nel mondo reale.}{37}{lstlisting.2.2}}
\@writefile{toc}{\contentsline {section}{\numberline {2.4}Calcolo della distanza nel mondo reale}{37}{section.2.4}}
\@writefile{lol}{\contentsline {lstlisting}{\numberline {2.3}Codice per rendere reattivo lo schermo quando questo viene toccato.}{38}{lstlisting.2.3}}
\@writefile{lol}{\contentsline {lstlisting}{\numberline {2.4}Codice per l'aggiunta del nodo invisibile sulla superficie orizzontale rilevata.}{38}{lstlisting.2.4}}
\@writefile{lol}{\contentsline {lstlisting}{\numberline {2.5}Codice per la misura della distanza dal dispositivo mobile al nodo posizionato sul foglio.}{39}{lstlisting.2.5}}
\@writefile{lof}{\contentsline {figure}{\numberline {2.2}{\ignorespaces \relax \fontsize  {10.95}{13.6}\selectfont  \abovedisplayskip 11\p@ plus3\p@ minus6\p@ \abovedisplayshortskip \z@ plus3\p@ \belowdisplayshortskip 6.5\p@ plus3.5\p@ minus3\p@ \def \leftmargin \leftmargini \parsep 5\p@ plus2.5\p@ minus\p@ \topsep 10\p@ plus4\p@ minus6\p@ \itemsep 5\p@ plus2.5\p@ minus\p@ {\leftmargin \leftmargini \topsep 9\p@ plus3\p@ minus5\p@ \parsep 4.5\p@ plus2\p@ minus\p@ \itemsep \parsep }\belowdisplayskip \abovedisplayskip {Applicazione dell'algoritmo con soglie \textit  {fisse} con il dispositivo mobile ad una distanza dal foglio di 20 cm.}\relax }}{42}{figure.caption.18}}
\@writefile{lof}{\contentsline {figure}{\numberline {2.3}{\ignorespaces \relax \fontsize  {10.95}{13.6}\selectfont  \abovedisplayskip 11\p@ plus3\p@ minus6\p@ \abovedisplayshortskip \z@ plus3\p@ \belowdisplayshortskip 6.5\p@ plus3.5\p@ minus3\p@ \def \leftmargin \leftmargini \parsep 5\p@ plus2.5\p@ minus\p@ \topsep 10\p@ plus4\p@ minus6\p@ \itemsep 5\p@ plus2.5\p@ minus\p@ {\leftmargin \leftmargini \topsep 9\p@ plus3\p@ minus5\p@ \parsep 4.5\p@ plus2\p@ minus\p@ \itemsep \parsep }\belowdisplayskip \abovedisplayskip {Applicazione dell'algoritmo con soglie \textit  {dinamiche} con il dispositivo mobile ad una distanza dal foglio di 20 cm.}\relax }}{42}{figure.caption.19}}
\@writefile{lof}{\contentsline {figure}{\numberline {2.4}{\ignorespaces \relax \fontsize  {10.95}{13.6}\selectfont  \abovedisplayskip 11\p@ plus3\p@ minus6\p@ \abovedisplayshortskip \z@ plus3\p@ \belowdisplayshortskip 6.5\p@ plus3.5\p@ minus3\p@ \def \leftmargin \leftmargini \parsep 5\p@ plus2.5\p@ minus\p@ \topsep 10\p@ plus4\p@ minus6\p@ \itemsep 5\p@ plus2.5\p@ minus\p@ {\leftmargin \leftmargini \topsep 9\p@ plus3\p@ minus5\p@ \parsep 4.5\p@ plus2\p@ minus\p@ \itemsep \parsep }\belowdisplayskip \abovedisplayskip {Applicazione dell'algoritmo con soglie \textit  {fisse} con il dispositivo mobile ad una distanza dal foglio di 6 cm.}\relax }}{43}{figure.caption.20}}
\@writefile{lof}{\contentsline {figure}{\numberline {2.5}{\ignorespaces \relax \fontsize  {10.95}{13.6}\selectfont  \abovedisplayskip 11\p@ plus3\p@ minus6\p@ \abovedisplayshortskip \z@ plus3\p@ \belowdisplayshortskip 6.5\p@ plus3.5\p@ minus3\p@ \def \leftmargin \leftmargini \parsep 5\p@ plus2.5\p@ minus\p@ \topsep 10\p@ plus4\p@ minus6\p@ \itemsep 5\p@ plus2.5\p@ minus\p@ {\leftmargin \leftmargini \topsep 9\p@ plus3\p@ minus5\p@ \parsep 4.5\p@ plus2\p@ minus\p@ \itemsep \parsep }\belowdisplayskip \abovedisplayskip {Applicazione dell'algoritmo con soglie \textit  {dinamiche} con il dispositivo mobile ad una distanza dal foglio di 6 cm.}\relax }}{43}{figure.caption.21}}
\@writefile{toc}{\contentsline {chapter}{\numberline {3}Aspetti architetturali ed implementativi}{45}{chapter.3}}
\@writefile{lof}{\addvspace {10\p@ }}
\@writefile{lot}{\addvspace {10\p@ }}
\@writefile{toc}{\contentsline {section}{\numberline {3.1}iOS}{45}{section.3.1}}
\@writefile{toc}{\contentsline {subsection}{\numberline {3.1.1}Swift}{45}{subsection.3.1.1}}
\@writefile{toc}{\contentsline {subsection}{\numberline {3.1.2}Portabilit\IeC {\`a} da iOS ad Android}{46}{subsection.3.1.2}}
\@writefile{toc}{\contentsline {section}{\numberline {3.2}Architettura MVC}{47}{section.3.2}}
\@writefile{toc}{\contentsline {subsection}{\numberline {3.2.1}Model}{47}{subsection.3.2.1}}
\@writefile{toc}{\contentsline {subsection}{\numberline {3.2.2}View}{48}{subsection.3.2.2}}
\@writefile{toc}{\contentsline {subsection}{\numberline {3.2.3}Controller}{48}{subsection.3.2.3}}
\@writefile{toc}{\contentsline {section}{\numberline {3.3}Progettazione}{49}{section.3.3}}
\@writefile{lof}{\contentsline {figure}{\numberline {3.1}{\ignorespaces \relax \fontsize  {10.95}{13.6}\selectfont  \abovedisplayskip 11\p@ plus3\p@ minus6\p@ \abovedisplayshortskip \z@ plus3\p@ \belowdisplayshortskip 6.5\p@ plus3.5\p@ minus3\p@ \def \leftmargin \leftmargini \parsep 5\p@ plus2.5\p@ minus\p@ \topsep 10\p@ plus4\p@ minus6\p@ \itemsep 5\p@ plus2.5\p@ minus\p@ {\leftmargin \leftmargini \topsep 9\p@ plus3\p@ minus5\p@ \parsep 4.5\p@ plus2\p@ minus\p@ \itemsep \parsep }\belowdisplayskip \abovedisplayskip {Diagramma di attivit\IeC {\`a} dell'intera applicazione.}\relax }}{49}{figure.caption.22}}
\@writefile{toc}{\contentsline {subsection}{\numberline {3.3.1}Progettazione algoritmo di segmentazione\\ delle operazioni matematiche}{50}{subsection.3.3.1}}
\@writefile{lof}{\contentsline {figure}{\numberline {3.2}{\ignorespaces \relax \fontsize  {10.95}{13.6}\selectfont  \abovedisplayskip 11\p@ plus3\p@ minus6\p@ \abovedisplayshortskip \z@ plus3\p@ \belowdisplayshortskip 6.5\p@ plus3.5\p@ minus3\p@ \def \leftmargin \leftmargini \parsep 5\p@ plus2.5\p@ minus\p@ \topsep 10\p@ plus4\p@ minus6\p@ \itemsep 5\p@ plus2.5\p@ minus\p@ {\leftmargin \leftmargini \topsep 9\p@ plus3\p@ minus5\p@ \parsep 4.5\p@ plus2\p@ minus\p@ \itemsep \parsep }\belowdisplayskip \abovedisplayskip {Sotto diagramma di attivit\IeC {\`a} dell'attivit\IeC {\`a} \relax \fontsize  {12}{14.5}\selectfont  \abovedisplayskip 12\p@ plus3\p@ minus7\p@ \abovedisplayshortskip \z@ plus3\p@ \belowdisplayshortskip 6.5\p@ plus3.5\p@ minus3\p@ \belowdisplayskip \abovedisplayskip \let \leftmargin \leftmargini \parsep 5\p@ plus2.5\p@ minus\p@ \topsep 10\p@ plus4\p@ minus6\p@ \itemsep 5\p@ plus2.5\p@ minus\p@ \leftmargin \leftmargini \parsep 5\p@ plus2.5\p@ minus\p@ \topsep 10\p@ plus4\p@ minus6\p@ \itemsep 5\p@ plus2.5\p@ minus\p@ {\textit  {segmentazione operazioni matematiche}} del diagramma in Figura 4.1.}\relax }}{50}{figure.caption.23}}
\@writefile{toc}{\contentsline {subsection}{\numberline {3.3.2}Progettazione interazione con Mathpix}{51}{subsection.3.3.2}}
\@writefile{lof}{\contentsline {figure}{\numberline {3.3}{\ignorespaces \relax \fontsize  {10.95}{13.6}\selectfont  \abovedisplayskip 11\p@ plus3\p@ minus6\p@ \abovedisplayshortskip \z@ plus3\p@ \belowdisplayshortskip 6.5\p@ plus3.5\p@ minus3\p@ \def \leftmargin \leftmargini \parsep 5\p@ plus2.5\p@ minus\p@ \topsep 10\p@ plus4\p@ minus6\p@ \itemsep 5\p@ plus2.5\p@ minus\p@ {\leftmargin \leftmargini \topsep 9\p@ plus3\p@ minus5\p@ \parsep 4.5\p@ plus2\p@ minus\p@ \itemsep \parsep }\belowdisplayskip \abovedisplayskip {Diagramma di sequenza che descrive le interazioni dell'applicazione con Mathpix.}\relax }}{52}{figure.caption.24}}
\@writefile{toc}{\contentsline {section}{\numberline {3.4}Implementazione}{52}{section.3.4}}
\@writefile{toc}{\contentsline {subsection}{\numberline {3.4.1}Implementazione algoritmo di segmentazione\\ delle operazioni matematiche}{53}{subsection.3.4.1}}
\@writefile{lol}{\contentsline {lstlisting}{\numberline {3.1}Calcolo dei pixel di foreground per ogni riga dell'immagine.}{53}{lstlisting.3.1}}
\@writefile{lol}{\contentsline {lstlisting}{\numberline {3.2}Algoritmo per la rimozione del rumore di foreground.}{54}{lstlisting.3.2}}
\@writefile{lol}{\contentsline {lstlisting}{\numberline {3.3}Calcolo dei pixel di foreground per ogni colonna dell'immagine.}{54}{lstlisting.3.3}}
\@writefile{toc}{\contentsline {subsection}{\numberline {3.4.2}Connessione a Mathpix}{55}{subsection.3.4.2}}
\@writefile{lol}{\contentsline {lstlisting}{\numberline {3.4}Setup dell'account (ID + chiave) per poter usufruire dei servizi di Mathpix.}{55}{lstlisting.3.4}}
\@writefile{lol}{\contentsline {lstlisting}{\numberline {3.5}Invio della richiesta http ai server di Mathpix per usufruire del servizio di riconoscimento dei caratteri.}{56}{lstlisting.3.5}}
\@writefile{toc}{\contentsline {section}{\numberline {3.5}Chatbot}{58}{section.3.5}}
\@writefile{toc}{\contentsline {subsection}{\numberline {3.5.1}Creazione chatbot}{59}{subsection.3.5.1}}
\@writefile{toc}{\contentsline {subsection}{\numberline {3.5.2}Interazione con il chatbot}{59}{subsection.3.5.2}}
\@writefile{lol}{\contentsline {lstlisting}{\numberline {3.6}Connessione al chatbot.}{59}{lstlisting.3.6}}
\@writefile{lol}{\contentsline {lstlisting}{\numberline {3.7}Esempio echo con il chatbot.}{60}{lstlisting.3.7}}
\@writefile{toc}{\contentsline {chapter}{\numberline {4}Conclusioni}{61}{chapter.4}}
\@writefile{lof}{\addvspace {10\p@ }}
\@writefile{lot}{\addvspace {10\p@ }}
\@writefile{toc}{\contentsline {section}{\numberline {4.1}Lavori futuri}{62}{section.4.1}}
\@writefile{toc}{\contentsline {chapter}{Bibliografia}{65}{chapter*.25}}
